Introduction to rGEO.data • rGEO.data
…
rGEO.data::gpl_metas[1:2]
#> $GPL21790
#> $GPL21790$info
#> # A tibble: 2 × 2
#>   name  description
#>   <chr> <chr>      
#> 1 ID    ""         
#> 2 ORF   ""         
#> 
#> $GPL21790$sample
#> # A tibble: 20 × 2
#>   ID      ORF    
#>   <chr>   <chr>  
#> 1 ACTA2   ACTA2  
#> 2 ACTB    ACTB   
#> 3 AFP     AFP    
#> 4 B3GALT5 B3GALT5
#> 5 BMP2    BMP2   
#> 6 BMP4    BMP4   
#> # … with 14 more rows
#> 
#> 
#> $GPL24205
#> $GPL24205$info
#> # A tibble: 10 × 2
#>   name           description                         
#>   <chr>          <chr>                               
#> 1 ID             Probe Name                          
#> 2 GB_ACC         GenBank or RefSeq accession number  
#> 3 GenbankID      GenBank or RefSeq accession number  
#> 4 GB_RANGE       RefSeq accession.version[start..end]
#> 5 Symbol         Symbol                              
#> 6 ENTREZ_GENE_ID Entrez Gene ID                      
#> # … with 4 more rows
#> 
#> $GPL24205$sample
#> # A tibble: 20 × 10
#>   ID     GB_ACC GenbankID GB_RANGE Symbol ENTREZ_GENE_ID Description ControlType
#>   <chr>  <chr>  <chr>     <chr>    <chr>  <chr>          <chr>       <chr>      
#> 1 EPI_A… NM_00… ""        ""       NA     ""             NA          0          
#> 2 EPI_A… NM_00… ""        ""       NA     ""             NA          0          
#> 3 EPI_A… NM_00… ""        ""       NA     ""             NA          0          
#> 4 EPI_A… NM_00… ""        ""       NA     ""             NA          0          
#> 5 EPI_A… NM_00… ""        ""       NA     ""             NA          0          
#> 6 EPI_A… NM_00… ""        ""       NA     ""             NA          0          
#> # … with 14 more rows, and 2 more variables: SEQUENCE <chr>, SPOT_ID <chr>
…
